[gd_scene load_steps=2 format=2]

[ext_resource path="res://environment/tree/random_tree.gd" type="Script" id=1]

[node name="random_tree" type="Node2D"]

scale = Vector2( 0.1, 0.1 )
script = ExtResource( 1 )
_sections_unfolded = [ "Transform" ]
mass_ratio = 0.5
dampenning = 0.999
wind = 0


