[gd_resource type="TileSet" load_steps=2 format=2]

[ext_resource path="res://environment/tileset/tileset.png" type="Texture" id=1]

[resource]

0/name = "wall_01"
0/texture = ExtResource( 1 )
0/tex_offset = Vector2( -16, -16 )
0/modulate = Color( 1, 1, 1, 1 )
0/region = Rect2( 0, 0, 32, 32 )
0/is_autotile = false
0/occluder_offset = Vector2( 0, 0 )
0/navigation_offset = Vector2( 0, 0 )
0/shapes = [  ]
1/name = "wall_02"
1/texture = ExtResource( 1 )
1/tex_offset = Vector2( 0, -16 )
1/modulate = Color( 1, 1, 1, 1 )
1/region = Rect2( 32, 0, 16, 32 )
1/is_autotile = false
1/occluder_offset = Vector2( 0, 0 )
1/navigation_offset = Vector2( 0, 0 )
1/shapes = [  ]
2/name = "wall_03"
2/texture = ExtResource( 1 )
2/tex_offset = Vector2( 0, -16 )
2/modulate = Color( 1, 1, 1, 1 )
2/region = Rect2( 48, 0, 32, 32 )
2/is_autotile = false
2/occluder_offset = Vector2( 0, 0 )
2/navigation_offset = Vector2( 0, 0 )
2/shapes = [  ]
3/name = "wall_04"
3/texture = ExtResource( 1 )
3/tex_offset = Vector2( -16, 0 )
3/modulate = Color( 1, 1, 1, 1 )
3/region = Rect2( 0, 32, 32, 16 )
3/is_autotile = false
3/occluder_offset = Vector2( 0, 0 )
3/navigation_offset = Vector2( 0, 0 )
3/shapes = [  ]
4/name = "wall_05"
4/texture = ExtResource( 1 )
4/tex_offset = Vector2( 0, 0 )
4/modulate = Color( 1, 1, 1, 1 )
4/region = Rect2( 32, 32, 16, 16 )
4/is_autotile = false
4/occluder_offset = Vector2( 0, 0 )
4/navigation_offset = Vector2( 0, 0 )
4/shapes = [  ]
5/name = "wall_06"
5/texture = ExtResource( 1 )
5/tex_offset = Vector2( 0, 0 )
5/modulate = Color( 1, 1, 1, 1 )
5/region = Rect2( 48, 32, 32, 16 )
5/is_autotile = false
5/occluder_offset = Vector2( 0, 0 )
5/navigation_offset = Vector2( 0, 0 )
5/shapes = [  ]
6/name = "wall_07"
6/texture = ExtResource( 1 )
6/tex_offset = Vector2( -16, 0 )
6/modulate = Color( 1, 1, 1, 1 )
6/region = Rect2( 0, 48, 32, 32 )
6/is_autotile = false
6/occluder_offset = Vector2( 0, 0 )
6/navigation_offset = Vector2( 0, 0 )
6/shapes = [  ]
7/name = "wall_08"
7/texture = ExtResource( 1 )
7/tex_offset = Vector2( 0, 0 )
7/modulate = Color( 1, 1, 1, 1 )
7/region = Rect2( 32, 48, 16, 32 )
7/is_autotile = false
7/occluder_offset = Vector2( 0, 0 )
7/navigation_offset = Vector2( 0, 0 )
7/shapes = [  ]
8/name = "wall_09"
8/texture = ExtResource( 1 )
8/tex_offset = Vector2( 0, 0 )
8/modulate = Color( 1, 1, 1, 1 )
8/region = Rect2( 48, 48, 32, 32 )
8/is_autotile = false
8/occluder_offset = Vector2( 0, 0 )
8/navigation_offset = Vector2( 0, 0 )
8/shapes = [  ]
9/name = "platform_1"
9/texture = ExtResource( 1 )
9/tex_offset = Vector2( -16, -16 )
9/modulate = Color( 1, 1, 1, 1 )
9/region = Rect2( 0, 80, 32, 32 )
9/is_autotile = false
9/occluder_offset = Vector2( 0, 0 )
9/navigation_offset = Vector2( 0, 0 )
9/shapes = [  ]
10/name = "platform_2"
10/texture = ExtResource( 1 )
10/tex_offset = Vector2( 0, -16 )
10/modulate = Color( 1, 1, 1, 1 )
10/region = Rect2( 32, 80, 32, 32 )
10/is_autotile = false
10/occluder_offset = Vector2( 0, 0 )
10/navigation_offset = Vector2( 0, 0 )
10/shapes = [  ]
11/name = "deco_01"
11/texture = ExtResource( 1 )
11/tex_offset = Vector2( 0, 0 )
11/modulate = Color( 1, 1, 1, 1 )
11/region = Rect2( 80, 32, 16, 16 )
11/is_autotile = false
11/occluder_offset = Vector2( 0, 0 )
11/navigation_offset = Vector2( 0, 0 )
11/shapes = [  ]
12/name = "deco_02"
12/texture = ExtResource( 1 )
12/tex_offset = Vector2( 0, 0 )
12/modulate = Color( 1, 1, 1, 1 )
12/region = Rect2( 96, 32, 16, 16 )
12/is_autotile = false
12/occluder_offset = Vector2( 0, 0 )
12/navigation_offset = Vector2( 0, 0 )
12/shapes = [  ]
13/name = "deco_03"
13/texture = ExtResource( 1 )
13/tex_offset = Vector2( 0, 0 )
13/modulate = Color( 1, 1, 1, 1 )
13/region = Rect2( 112, 32, 16, 16 )
13/is_autotile = false
13/occluder_offset = Vector2( 0, 0 )
13/navigation_offset = Vector2( 0, 0 )
13/shapes = [  ]
14/name = "deco_04"
14/texture = ExtResource( 1 )
14/tex_offset = Vector2( 0, 0 )
14/modulate = Color( 1, 1, 1, 1 )
14/region = Rect2( 80, 48, 16, 16 )
14/is_autotile = false
14/occluder_offset = Vector2( 0, 0 )
14/navigation_offset = Vector2( 0, 0 )
14/shapes = [  ]

