[gd_resource type="TileSet" load_steps=18 format=2]

[ext_resource path="res://environment/tileset/tileset.png" type="Texture" id=1]

[sub_resource type="OccluderPolygon2D" id=1]

closed = true
cull_mode = 0
polygon = PoolVector2Array( 0, 0, 16, 0, 16, 16, 0, 16 )

[sub_resource type="ConvexPolygonShape2D" id=2]

custom_solver_bias = 0.0
points = PoolVector2Array( 0, 0, 16, 0, 16, 16, 0, 16 )

[sub_resource type="OccluderPolygon2D" id=3]

closed = true
cull_mode = 0
polygon = PoolVector2Array( 0, 0, 16, 0, 16, 16, 0, 16 )

[sub_resource type="ConvexPolygonShape2D" id=4]

custom_solver_bias = 0.0
points = PoolVector2Array( 0, 0, 16, 0, 16, 16, 0, 16 )

[sub_resource type="OccluderPolygon2D" id=5]

closed = true
cull_mode = 0
polygon = PoolVector2Array( 0, 0, 16, 0, 16, 8, 0, 8 )

[sub_resource type="ConvexPolygonShape2D" id=6]

custom_solver_bias = 0.0
points = PoolVector2Array( 0, 0, 16, 0, 16, 8, 0, 8 )

[sub_resource type="OccluderPolygon2D" id=7]

closed = true
cull_mode = 0
polygon = PoolVector2Array( 8, 0, 16, 0, 16, 8, 8, 8 )

[sub_resource type="ConvexPolygonShape2D" id=8]

custom_solver_bias = 0.0
points = PoolVector2Array( 8, 0, 16, 0, 16, 8, 8, 8 )

[sub_resource type="OccluderPolygon2D" id=9]

closed = true
cull_mode = 0
polygon = PoolVector2Array( 0, 0, 16, 0, 16, 16, 0, 16 )

[sub_resource type="ConvexPolygonShape2D" id=10]

custom_solver_bias = 0.0
points = PoolVector2Array( 0, 0, 16, 0, 16, 16, 0, 16 )

[sub_resource type="ConvexPolygonShape2D" id=11]

custom_solver_bias = 0.0
points = PoolVector2Array( 0, 0, 16, 0, 16, 16, 0, 16 )

[sub_resource type="ConvexPolygonShape2D" id=12]

custom_solver_bias = 0.0
points = PoolVector2Array( 0, 0, 16, 0, 16, 16, 0, 16 )

[sub_resource type="ConvexPolygonShape2D" id=13]

custom_solver_bias = 0.0
points = PoolVector2Array( 0, 0, 16, 0, 16, 16, 0, 16 )

[sub_resource type="ConvexPolygonShape2D" id=14]

custom_solver_bias = 0.0
points = PoolVector2Array( 0, 0, 16, 0, 16, 16, 0, 16 )

[sub_resource type="ConvexPolygonShape2D" id=15]

custom_solver_bias = 0.0
points = PoolVector2Array( 0, 0, 16, 0, 16, 16, 0, 16 )

[sub_resource type="ConvexPolygonShape2D" id=16]

custom_solver_bias = 0.0
points = PoolVector2Array( 0, 0, 16, 0, 16, 8, 0, 8 )

[resource]

0/name = "wall_01"
0/texture = ExtResource( 1 )
0/tex_offset = Vector2( -16, -16 )
0/modulate = Color( 1, 1, 1, 1 )
0/region = Rect2( 0, 0, 32, 32 )
0/is_autotile = false
0/occluder_offset = Vector2( 0, 0 )
0/occluder = SubResource( 1 )
0/navigation_offset = Vector2( 0, 0 )
0/shapes = [ {
"autotile_coord": Vector2( 0, 0 ),
"one_way": false,
"shape": SubResource( 2 ),
"shape_transform": Transform2D( 1, 0, 0, 1, 0, 0 )
} ]
1/name = "wall_02"
1/texture = ExtResource( 1 )
1/tex_offset = Vector2( 0, -16 )
1/modulate = Color( 1, 1, 1, 1 )
1/region = Rect2( 32, 0, 16, 32 )
1/is_autotile = false
1/occluder_offset = Vector2( 0, 0 )
1/occluder = SubResource( 3 )
1/navigation_offset = Vector2( 0, 0 )
1/shapes = [ {
"autotile_coord": Vector2( 0, 0 ),
"one_way": false,
"shape": SubResource( 4 ),
"shape_transform": Transform2D( 1, 0, 0, 1, 0, 0 )
} ]
2/name = "wall_03"
2/texture = ExtResource( 1 )
2/tex_offset = Vector2( 0, -16 )
2/modulate = Color( 1, 1, 1, 1 )
2/region = Rect2( 48, 0, 32, 32 )
2/is_autotile = false
2/occluder_offset = Vector2( 0, 0 )
2/occluder = SubResource( 9 )
2/navigation_offset = Vector2( 0, 0 )
2/shapes = [ {
"autotile_coord": Vector2( 0, 0 ),
"one_way": false,
"shape": SubResource( 10 ),
"shape_transform": Transform2D( 1, 0, 0, 1, 0, 0 )
} ]
3/name = "wall_04"
3/texture = ExtResource( 1 )
3/tex_offset = Vector2( -16, 0 )
3/modulate = Color( 1, 1, 1, 1 )
3/region = Rect2( 0, 32, 32, 16 )
3/is_autotile = false
3/occluder_offset = Vector2( 0, 0 )
3/occluder = SubResource( 9 )
3/navigation_offset = Vector2( 0, 0 )
3/shapes = [ {
"autotile_coord": Vector2( 0, 0 ),
"one_way": false,
"shape": SubResource( 11 ),
"shape_transform": Transform2D( 1, 0, 0, 1, 0, 0 )
} ]
4/name = "wall_05"
4/texture = ExtResource( 1 )
4/tex_offset = Vector2( 0, 0 )
4/modulate = Color( 1, 1, 1, 1 )
4/region = Rect2( 32, 32, 16, 16 )
4/is_autotile = false
4/occluder_offset = Vector2( 0, 0 )
4/navigation_offset = Vector2( 0, 0 )
4/shapes = [  ]
5/name = "wall_06"
5/texture = ExtResource( 1 )
5/tex_offset = Vector2( 0, 0 )
5/modulate = Color( 1, 1, 1, 1 )
5/region = Rect2( 48, 32, 32, 16 )
5/is_autotile = false
5/occluder_offset = Vector2( 0, 0 )
5/occluder = SubResource( 9 )
5/navigation_offset = Vector2( 0, 0 )
5/shapes = [ {
"autotile_coord": Vector2( 0, 0 ),
"one_way": false,
"shape": SubResource( 12 ),
"shape_transform": Transform2D( 1, 0, 0, 1, 0, 0 )
} ]
6/name = "wall_07"
6/texture = ExtResource( 1 )
6/tex_offset = Vector2( -16, 0 )
6/modulate = Color( 1, 1, 1, 1 )
6/region = Rect2( 0, 48, 32, 32 )
6/is_autotile = false
6/occluder_offset = Vector2( 0, 0 )
6/occluder = SubResource( 9 )
6/navigation_offset = Vector2( 0, 0 )
6/shapes = [ {
"autotile_coord": Vector2( 0, 0 ),
"one_way": false,
"shape": SubResource( 13 ),
"shape_transform": Transform2D( 1, 0, 0, 1, 0, 0 )
} ]
7/name = "wall_08"
7/texture = ExtResource( 1 )
7/tex_offset = Vector2( 0, 0 )
7/modulate = Color( 1, 1, 1, 1 )
7/region = Rect2( 32, 48, 16, 32 )
7/is_autotile = false
7/occluder_offset = Vector2( 0, 0 )
7/occluder = SubResource( 9 )
7/navigation_offset = Vector2( 0, 0 )
7/shapes = [ {
"autotile_coord": Vector2( 0, 0 ),
"one_way": false,
"shape": SubResource( 14 ),
"shape_transform": Transform2D( 1, 0, 0, 1, 0, 0 )
} ]
8/name = "wall_09"
8/texture = ExtResource( 1 )
8/tex_offset = Vector2( 0, 0 )
8/modulate = Color( 1, 1, 1, 1 )
8/region = Rect2( 48, 48, 32, 32 )
8/is_autotile = false
8/occluder_offset = Vector2( 0, 0 )
8/occluder = SubResource( 9 )
8/navigation_offset = Vector2( 0, 0 )
8/shapes = [ {
"autotile_coord": Vector2( 0, 0 ),
"one_way": false,
"shape": SubResource( 15 ),
"shape_transform": Transform2D( 1, 0, 0, 1, 0, 0 )
} ]
9/name = "platform_1"
9/texture = ExtResource( 1 )
9/tex_offset = Vector2( -16, -16 )
9/modulate = Color( 1, 1, 1, 1 )
9/region = Rect2( 0, 80, 32, 32 )
9/is_autotile = false
9/occluder_offset = Vector2( 0, 0 )
9/occluder = SubResource( 5 )
9/navigation_offset = Vector2( 0, 0 )
9/shapes = [ {
"autotile_coord": Vector2( 0, 0 ),
"one_way": true,
"shape": SubResource( 16 ),
"shape_transform": Transform2D( 1, 0, 0, 1, 0, 0 )
} ]
10/name = "platform_2"
10/texture = ExtResource( 1 )
10/tex_offset = Vector2( 0, -16 )
10/modulate = Color( 1, 1, 1, 1 )
10/region = Rect2( 32, 80, 32, 32 )
10/is_autotile = false
10/occluder_offset = Vector2( 0, 0 )
10/occluder = SubResource( 5 )
10/navigation_offset = Vector2( 0, 0 )
10/shapes = [ {
"autotile_coord": Vector2( 0, 0 ),
"one_way": true,
"shape": SubResource( 6 ),
"shape_transform": Transform2D( 1, 0, 0, 1, 0, 0 )
} ]
11/name = "deco_01"
11/texture = ExtResource( 1 )
11/tex_offset = Vector2( 0, 0 )
11/modulate = Color( 1, 1, 1, 1 )
11/region = Rect2( 80, 32, 16, 16 )
11/is_autotile = false
11/occluder_offset = Vector2( 0, 0 )
11/navigation_offset = Vector2( 0, 0 )
11/shapes = [  ]
12/name = "deco_02"
12/texture = ExtResource( 1 )
12/tex_offset = Vector2( 0, 0 )
12/modulate = Color( 1, 1, 1, 1 )
12/region = Rect2( 96, 32, 16, 16 )
12/is_autotile = false
12/occluder_offset = Vector2( 0, 0 )
12/navigation_offset = Vector2( 0, 0 )
12/shapes = [  ]
13/name = "deco_03"
13/texture = ExtResource( 1 )
13/tex_offset = Vector2( 0, 0 )
13/modulate = Color( 1, 1, 1, 1 )
13/region = Rect2( 112, 32, 16, 16 )
13/is_autotile = false
13/occluder_offset = Vector2( 0, 0 )
13/navigation_offset = Vector2( 0, 0 )
13/shapes = [  ]
14/name = "deco_04"
14/texture = ExtResource( 1 )
14/tex_offset = Vector2( 0, 0 )
14/modulate = Color( 1, 1, 1, 1 )
14/region = Rect2( 80, 48, 16, 16 )
14/is_autotile = false
14/occluder_offset = Vector2( 0, 0 )
14/navigation_offset = Vector2( 0, 0 )
14/shapes = [  ]
15/name = "platform_3"
15/texture = ExtResource( 1 )
15/tex_offset = Vector2( -8, -16 )
15/modulate = Color( 1, 1, 1, 1 )
15/region = Rect2( 0, 80, 24, 32 )
15/is_autotile = false
15/occluder_offset = Vector2( 0, 0 )
15/occluder = SubResource( 7 )
15/navigation_offset = Vector2( 0, 0 )
15/shapes = [ {
"autotile_coord": Vector2( 0, 0 ),
"one_way": true,
"shape": SubResource( 8 ),
"shape_transform": Transform2D( 1, 0, 0, 1, 0, 0 )
} ]

