[gd_scene load_steps=4 format=2]

[ext_resource path="res://environment/crate/crate.gd" type="Script" id=1]
[ext_resource path="res://environment/crate/crate.png" type="Texture" id=2]

[sub_resource type="RectangleShape2D" id=1]

custom_solver_bias = 0.0
extents = Vector2( 12, 9 )

[node name="crate" type="KinematicBody2D" groups=[
"crate",
]]

input_pickable = false
collision_layer = 32775
collision_mask = 1
collision/safe_margin = 0.08
script = ExtResource( 1 )
_sections_unfolded = [ "Collision", "collision" ]

[node name="crate" type="Sprite" parent="." index="0"]

position = Vector2( 0, -1 )
texture = ExtResource( 2 )
offset = Vector2( 3, -15 )

[node name="CollisionShape2D" type="CollisionShape2D" parent="." index="1"]

position = Vector2( 0, -9 )
shape = SubResource( 1 )


