[gd_scene load_steps=4 format=2]

[ext_resource path="res://environment/caves/caves.png" type="Texture" id=1]
[ext_resource path="res://environment/caves/floor/light_occluders/floor_occluder.tscn" type="PackedScene" id=2]

[sub_resource type="OccluderPolygon2D" id=1]

closed = true
cull_mode = 0
polygon = PoolVector2Array( -16, 0, 16, 0, 16, 4, -16, 4 )

[node name="platform_2_" type="StaticBody2D"]

input_pickable = false
collision_layer = 7
collision_mask = 7
constant_linear_velocity = Vector2( 0, 0 )
constant_angular_velocity = 0.0
friction = 1.0
bounce = 0.0
_sections_unfolded = [ "Collision" ]

[node name="caves" type="Sprite" parent="." index="0"]

texture = ExtResource( 1 )
region_enabled = true
region_rect = Rect2( 144, 48, 48, 16 )
_sections_unfolded = [ "Region", "Transform" ]

[node name="LightOccluder2D" parent="." index="1" instance=ExtResource( 2 )]

occluder = SubResource( 1 )

[node name="CollisionPolygon2D" type="CollisionPolygon2D" parent="." index="2"]

build_mode = 0
polygon = PoolVector2Array( -16, 0, 16, 0, 16, 4, -16, 4 )
one_way_collision = true


