[gd_scene load_steps=4 format=2]

[ext_resource path="res://environment/caves/caves.png" type="Texture" id=1]
[ext_resource path="res://environment/caves/floor/light_occluders/wall_occluder.tscn" type="PackedScene" id=2]

[sub_resource type="RectangleShape2D" id=1]

custom_solver_bias = 0.0
extents = Vector2( 4, 16 )

[node name="wall_1_" type="StaticBody2D" index="0"]

input_pickable = false
collision_layer = 7
collision_mask = 7
constant_linear_velocity = Vector2( 0, 0 )
constant_angular_velocity = 0.0
friction = 1.0
bounce = 0.0
_sections_unfolded = [ "Collision", "Transform" ]

[node name="caves" type="Sprite" parent="." index="0"]

texture = ExtResource( 1 )
region_enabled = true
region_rect = Rect2( 192, 0, 16, 32 )
_sections_unfolded = [ "Region", "Transform" ]

[node name="CollisionShape2D" type="CollisionShape2D" parent="." index="1"]

position = Vector2( -4, 0 )
shape = SubResource( 1 )

[node name="LightOccluder2D" parent="." index="2" instance=ExtResource( 2 )]


