[gd_scene load_steps=6 format=2]

[ext_resource path="res://environment/spike/spike.gd" type="Script" id=1]
[ext_resource path="res://environment/spike/spike.png" type="Texture" id=2]

[sub_resource type="RectangleShape2D" id=1]

custom_solver_bias = 0.0
extents = Vector2( 5, 7 )

[sub_resource type="Animation" id=2]

resource_name = "blood"
length = 1.0
loop = false
step = 0.05
tracks/0/type = "value"
tracks/0/path = NodePath("spike:frame")
tracks/0/interp = 1
tracks/0/loop_wrap = true
tracks/0/imported = false
tracks/0/enabled = true
tracks/0/keys = {
"times": PoolRealArray( 0, 0.05, 0.1, 0.15, 0.2, 0.25, 0.3, 0.35, 0.4 ),
"transitions": PoolRealArray( 1, 1, 1, 1, 1, 1, 1, 1, 1 ),
"update": 1,
"values": [ 0, 1, 2, 3, 4, 5, 6, 7, 8 ]
}

[sub_resource type="Animation" id=3]

resource_name = "start"
length = 1.0
loop = false
step = 0.1
tracks/0/type = "value"
tracks/0/path = NodePath("spike:frame")
tracks/0/interp = 1
tracks/0/loop_wrap = true
tracks/0/imported = false
tracks/0/enabled = true
tracks/0/keys = {
"times": PoolRealArray( 0 ),
"transitions": PoolRealArray( 1 ),
"update": 1,
"values": [ 0 ]
}

[node name="spike" type="Area2D"]

input_pickable = true
gravity_vec = Vector2( 0, 1 )
gravity = 98.0
linear_damp = 0.1
angular_damp = 1.0
collision_layer = 0
collision_mask = 32
audio_bus_override = false
audio_bus_name = "Master"
script = ExtResource( 1 )
_sections_unfolded = [ "Audio Bus", "Collision" ]

[node name="spike" type="Sprite" parent="." index="0"]

texture = ExtResource( 2 )
vframes = 3
hframes = 4
_sections_unfolded = [ "Animation", "Transform" ]
__meta__ = {
"_edit_lock_": true
}

[node name="CollisionShape2D" type="CollisionShape2D" parent="." index="1"]

position = Vector2( 0, 9 )
shape = SubResource( 1 )
__meta__ = {
"_edit_lock_": true
}

[node name="AnimationPlayer" type="AnimationPlayer" parent="." index="2"]

root_node = NodePath("..")
autoplay = "start"
playback_process_mode = 1
playback_default_blend_time = 0.0
playback_speed = 1.0
anims/blood = SubResource( 2 )
anims/start = SubResource( 3 )
blend_times = [  ]

[connection signal="area_entered" from="." to="." method="_on_spike_area_entered"]


