[gd_scene load_steps=6 format=2]

[ext_resource path="res://environment/box/box.gd" type="Script" id=1]
[ext_resource path="res://environment/box/box.png" type="Texture" id=2]

[sub_resource type="Animation" id=1]

resource_name = "closed"
length = 1.5
loop = true
step = 0.05
tracks/0/type = "value"
tracks/0/path = NodePath("box:frame")
tracks/0/interp = 1
tracks/0/loop_wrap = true
tracks/0/imported = false
tracks/0/enabled = true
tracks/0/keys = {
"times": PoolRealArray( 0, 1, 1.05, 1.1, 1.15, 1.2, 1.25, 1.3, 1.35, 1.4, 1.45 ),
"transitions": PoolRealArray( 1, 1, 1, 1, 1, 1, 1, 1, 1, 1, 1 ),
"update": 1,
"values": [ 0, 2, 3, 4, 5, 6, 7, 8, 9, 10, 11 ]
}

[sub_resource type="Animation" id=2]

resource_name = "open"
length = 1.0
loop = false
step = 0.1
tracks/0/type = "value"
tracks/0/path = NodePath("box:frame")
tracks/0/interp = 1
tracks/0/loop_wrap = true
tracks/0/imported = false
tracks/0/enabled = true
tracks/0/keys = {
"times": PoolRealArray( 0 ),
"transitions": PoolRealArray( 1 ),
"update": 1,
"values": [ 1 ]
}

[sub_resource type="RectangleShape2D" id=3]

custom_solver_bias = 0.0
extents = Vector2( 5, 4 )

[node name="box" type="Area2D" groups=[
"box",
]]

input_pickable = true
gravity_vec = Vector2( 0, 1 )
gravity = 98.0
linear_damp = 0.1
angular_damp = 1.0
collision_layer = 32
collision_mask = 32
audio_bus_override = false
audio_bus_name = "Master"
script = ExtResource( 1 )
_sections_unfolded = [ "Collision" ]

[node name="box" type="Sprite" parent="." index="0"]

texture = ExtResource( 2 )
offset = Vector2( 0, -8 )
vframes = 4
hframes = 4
frame = 1
_sections_unfolded = [ "Animation", "Transform" ]
__meta__ = {
"_edit_lock_": true
}

[node name="anim" type="AnimationPlayer" parent="." index="1"]

root_node = NodePath("..")
autoplay = "closed"
playback_process_mode = 1
playback_default_blend_time = 0.0
playback_speed = 1.0
anims/closed = SubResource( 1 )
anims/open = SubResource( 2 )
blend_times = [  ]

[node name="collision" type="CollisionShape2D" parent="." index="2"]

position = Vector2( 0, -4 )
shape = SubResource( 3 )


