[gd_scene load_steps=5 format=2]

[ext_resource path="res://environment/flat_ground/flat_ground_img1.png" type="Texture" id=1]

[sub_resource type="RectangleShape2D" id=1]

custom_solver_bias = 0.0
extents = Vector2( 24, 8 )

[sub_resource type="RectangleShape2D" id=2]

custom_solver_bias = 0.0
extents = Vector2( 28, 8 )

[sub_resource type="RectangleShape2D" id=3]

custom_solver_bias = 0.0
extents = Vector2( 37, 8 )

[node name="bridge_1" type="StaticBody2D"]

input_pickable = false
collision_layer = 7
collision_mask = 7
constant_linear_velocity = Vector2( 0, 0 )
constant_angular_velocity = 0.0
friction = 1.0
bounce = 0.0
_sections_unfolded = [ "Collision" ]

[node name="collision" type="CollisionShape2D" parent="." index="0"]

position = Vector2( 88.4227, 25.6546 )
shape = SubResource( 1 )

[node name="collision2" type="CollisionShape2D" parent="." index="1"]

position = Vector2( 168, 26 )
shape = SubResource( 2 )

[node name="collision3" type="CollisionShape2D" parent="." index="2"]

position = Vector2( 229.959, 34.6759 )
rotation = 0.243255
shape = SubResource( 3 )

[node name="collision4" type="CollisionShape2D" parent="." index="3"]

position = Vector2( 30.4712, 34.3001 )
rotation = 2.89899
shape = SubResource( 3 )
_sections_unfolded = [ "Transform" ]

[node name="Sprite" type="Sprite" parent="." index="4"]

texture = ExtResource( 1 )
centered = false
region_enabled = true
region_rect = Rect2( 0, 192, 288, 48 )
_sections_unfolded = [ "Region" ]


