[gd_scene load_steps=3 format=2]

[ext_resource path="res://environment/flat_ground/flat_ground_img1.png" type="Texture" id=1]

[sub_resource type="RectangleShape2D" id=1]

custom_solver_bias = 0.0
extents = Vector2( 160, 8 )

[node name="flat_ground_2" type="StaticBody2D"]

input_pickable = false
collision_layer = 7
collision_mask = 7
constant_linear_velocity = Vector2( 0, 0 )
constant_angular_velocity = 0.0
friction = 1.0
bounce = 0.0
_sections_unfolded = [ "Collision" ]

[node name="collision" type="CollisionShape2D" parent="." index="0"]

position = Vector2( 160, 24 )
shape = SubResource( 1 )

[node name="Sprite" type="Sprite" parent="." index="1"]

texture = ExtResource( 1 )
centered = false
region_enabled = true
region_rect = Rect2( 0, 32, 320, 32 )


