[gd_scene load_steps=5 format=2]

[ext_resource path="res://environment/uncover/uncover.gd" type="Script" id=1]

[sub_resource type="RectangleShape2D" id=1]

custom_solver_bias = 0.0
extents = Vector2( 30, 10 )

[sub_resource type="Animation" id=2]

resource_name = "open"
length = 1.0
loop = false
step = 0.1
tracks/0/type = "value"
tracks/0/path = NodePath("polygon:color")
tracks/0/interp = 1
tracks/0/loop_wrap = true
tracks/0/imported = false
tracks/0/enabled = true
tracks/0/keys = {
"times": PoolRealArray( 0, 0.5 ),
"transitions": PoolRealArray( 1, 1 ),
"update": 0,
"values": [ Color( 0, 0, 0, 1 ), Color( 0, 0, 0, 0 ) ]
}

[sub_resource type="Animation" id=3]

resource_name = "start"
length = 1.0
loop = false
step = 0.1
tracks/0/type = "value"
tracks/0/path = NodePath("polygon:color")
tracks/0/interp = 1
tracks/0/loop_wrap = true
tracks/0/imported = false
tracks/0/enabled = true
tracks/0/keys = {
"times": PoolRealArray( 0 ),
"transitions": PoolRealArray( 1 ),
"update": 0,
"values": [ Color( 0, 0, 0, 1 ) ]
}

[node name="uncover" type="Area2D"]

input_pickable = true
gravity_vec = Vector2( 0, 1 )
gravity = 98.0
linear_damp = 0.1
angular_damp = 1.0
collision_layer = 0
collision_mask = 32
audio_bus_override = false
audio_bus_name = "Master"
script = ExtResource( 1 )
_sections_unfolded = [ "Collision" ]

[node name="CollisionShape2D" type="CollisionShape2D" parent="." index="0"]

shape = SubResource( 1 )

[node name="polygon" type="Polygon2D" parent="." index="1"]

z_index = 2
polygon = PoolVector2Array(  )
uv = PoolVector2Array(  )
color = Color( 0, 0, 0, 1 )
vertex_colors = PoolColorArray(  )
offset = Vector2( 0, 0 )
antialiased = false
texture = null
texture_offset = Vector2( 0, 0 )
texture_scale = Vector2( 1, 1 )
texture_rotation_degrees = 0.0
invert_enable = false
invert_border = 100.0
_sections_unfolded = [ "Visibility", "Z Index" ]

[node name="anim" type="AnimationPlayer" parent="." index="2"]

root_node = NodePath("..")
autoplay = "start"
playback_process_mode = 1
playback_default_blend_time = 0.0
playback_speed = 1.0
anims/open = SubResource( 2 )
anims/start = SubResource( 3 )
blend_times = [  ]

[connection signal="area_entered" from="." to="." method="_on_uncover_area_entered"]


