[gd_scene load_steps=3 format=2]

[ext_resource path="res://player/art/fx.png" type="Texture" id=1]

[sub_resource type="Animation" id=1]

resource_name = "cycle"
length = 1.0
loop = false
step = 0.05
tracks/0/type = "value"
tracks/0/path = NodePath(".:frame")
tracks/0/interp = 1
tracks/0/loop_wrap = true
tracks/0/imported = false
tracks/0/enabled = true
tracks/0/keys = {
"times": PoolRealArray( 0, 0.05, 0.1, 0.15, 0.2 ),
"transitions": PoolRealArray( 1, 1, 1, 1, 1 ),
"update": 1,
"values": [ 12, 13, 14, 15, 16 ]
}
tracks/1/type = "method"
tracks/1/path = NodePath(".")
tracks/1/interp = 1
tracks/1/loop_wrap = true
tracks/1/imported = false
tracks/1/enabled = true
tracks/1/keys = {
"times": PoolRealArray( 0.25 ),
"transitions": PoolRealArray( 1 ),
"values": [ {
"args": [  ],
"method": "queue_free"
} ]
}

[node name="hit_wall" type="Sprite"]

texture = ExtResource( 1 )
offset = Vector2( -16, -22 )
vframes = 8
hframes = 8
frame = 12
_sections_unfolded = [ "Animation" ]

[node name="anim" type="AnimationPlayer" parent="." index="0"]

root_node = NodePath("..")
autoplay = "cycle"
playback_process_mode = 1
playback_default_blend_time = 0.0
playback_speed = 1.0
anims/cycle = SubResource( 1 )
blend_times = [  ]


